{
    "title": "CGIS-EUMC",
    "sub_brand": "",
    "institute_id": "EUMC",
    "local_db": {
        "host": "127.0.0.1",
        "database": "CGIS",
        "user": "root",
        "password": "whdgkqrhks101"
    },
    "biobank": {
        "host": "112.175.32.118",
        "url": {
            "http": "http://112.175.32.118",
            "https": "https://112.175.32.118"
        }
    },
    "galaxy": {
        "host": "112.175.32.119",
        "url": {
            "http": "http://112.175.32.119:8080"
        }
    },
    "community": {
        "url": "http://112.175.32.118/community"
    },
    "biobank_db": {
        "host": "127.0.0.1",
        "database": "CGIS",
        "user": "root",
        "password": "whdgkqrhks101"
    }
}
